…
  return(bind_rows(res_all, res_obs, res_protein))
}
```

Test how well the model runs in all, case control, observational and
protein gwas

``` r
library(dplyr)
dgmodel_analysis(dat)
```

    ## # A tibble: 27 × 9
    ##           ahat     bhat       se     fval      pval      n x     y     study    
    ##          <dbl>    <dbl>    <dbl>    <dbl>     <dbl>  <int> <chr> <chr> <chr>    
    ##  1  0.0246     -0.0195  0.000486 1617.    0         100000 prs   d     all      
    ##  2  0.00574    -0.364   0.0194    353.    1.40e- 78 100000 c0    d     all      
    ##  3  0.00830    -0.351   0.0197    319.    3.62e- 71 100000 r0    d     all      
    ##  4 -0.00000790 -0.00244 0.00332     0.541 4.62e-  1 100000 prs   c0    all      
    ##  5  0.0000257   0.0765  0.00327   549.    5.23e-121 100000 prs   r0    all      
    ##  6  0.00558     0.0259  0.0204      1.61  2.05e-  1 100000 c1    d     all      
    ##  7  0.00244     0.0463  0.0197      5.50  1.90e-  2 100000 r1    d     all      
    ##  8  0.0000600  -0.00965 0.00316     9.35  2.23e-  3 100000 prs   c1    all      
    ##  9 -0.0000233   0.00651 0.00327     3.97  4.62e-  2 100000 prs   r1    all      
    ## 10  0.430      -0.180   0.00974   342.    1.10e- 70   2000 prs   d     observat…
    ## # … with 17 more rows
…
