…
    ## Analysing 'X' on 'Y'

    ## # A tibble: 22 × 18
    ##      SNP exposure id.exposure outcome id.outcome beta.exposure beta.outcome
    ##    <int> <chr>    <chr>       <chr>   <chr>              <dbl>        <dbl>
    ##  1     1 X        X           Y       Y                 -0.199     -0.0153 
    ##  2     7 X        X           Y       Y                  0.117      0.00205
    ##  3     8 X        X           Y       Y                  0.107      0.0171 
    ##  4    14 X        X           Y       Y                  0.152      0.0187 
    ##  5    20 X        X           Y       Y                 -0.149     -0.00913
    ##  6    22 X        X           Y       Y                  0.107      0.0139 
    ##  7    36 X        X           Y       Y                 -0.137      0.00192
    ##  8    38 X        X           Y       Y                 -0.131     -0.0108 
    ##  9    44 X        X           Y       Y                  0.145      0.00956
    ## 10    53 X        X           Y       Y                 -0.130     -0.00390
    ## # ℹ 12 more rows
    ## # ℹ 11 more variables: se.exposure <dbl>, se.outcome <dbl>,
    ## #   pval.exposure <dbl>, pval.outcome <dbl>, samplesize.exposure <dbl>,
    ## #   samplesize.outcome <dbl>, units.exposure <chr>, units.outcome <chr>,
    ## #   rsq.exposure <dbl>, rsq.outcome <dbl>, mr_keep <lgl>

    ## Analysing 'X' on 'Y'

    ## # A tibble: 22 × 18
    ##      SNP exposure id.exposure outcome id.outcome beta.exposure beta.outcome
    ##    <int> <chr>    <chr>       <chr>   <chr>              <dbl>        <dbl>
    ##  1     1 X        X           Y       Y                 -0.199      0.00358
    ##  2     7 X        X           Y       Y                  0.117      0.00425
    ##  3     8 X        X           Y       Y                  0.107     -0.00207
    ##  4    14 X        X           Y       Y                  0.152      0.00867
    ##  5    20 X        X           Y       Y                 -0.149      0.00311
    ##  6    22 X        X           Y       Y                  0.107      0.00824
    ##  7    36 X        X           Y       Y                 -0.137     -0.00497
    ##  8    38 X        X           Y       Y                 -0.131     -0.00298
    ##  9    44 X        X           Y       Y                  0.145      0.00600
    ## 10    53 X        X           Y       Y                 -0.130      0.0238 
    ## # ℹ 12 more rows
    ## # ℹ 11 more variables: se.exposure <dbl>, se.outcome <dbl>,
    ## #   pval.exposure <dbl>, pval.outcome <dbl>, samplesize.exposure <dbl>,
    ## #   samplesize.outcome <dbl>, units.exposure <chr>, units.outcome <chr>,
    ## #   rsq.exposure <dbl>, rsq.outcome <dbl>, mr_keep <lgl>
…
